30 30 0 102 204
B2222222222222222222222222222C
400000000000000000000000000003
400000000000000000000000000003
400000000000000000000000000003
400000000000000000000000000003
4000000000000L00000N0000WL0003
40000000000000DEEEEEEEEEF00003
40000000000DEF0000000000000003
400000000000000000000000000003
400000000000000000000000000003
400000000000000000000000000003
400000005600000000000000000003
400000059400000000000000000003
40000003ZA60000000000000000003
400000072280000000000000000003
400560000000000000000000000003
40078000000DF00000000000000003
4000000000000000DF000000000003
400000000000000000000000000003
40000000000UUUUUUUUU0000000003
40000000000DEEEEEEEF000DF00003
40000000000SSSSSSSSS0000000003
400000000000000000000000000003
400000000000000000000000000003
40000000000000000000000000DF03
400000000000000L0000N000L00003
4000000000000000DEEEEEEF000003
400000000000000000000000000003
400000000000000000000000000003
A11111111111111111111111111119