60 20 0 105 256
B2222222222222222222222222222222222222222222222222222222222C
400000000000000000000000000000000000000000000000000000000003
400000000000000000000000000000000000000000000000000000000003
400000000000000000000000000000000000000000000000000000000003
400000000000000000000000000000000000000000000000000000000003
400000000000000000000000000000000000000000000000000000000003
400000000000000000000000000000000000000000000000000000000003
400000000000000000000000000000000000000000000000000000000003
400000000000000000000000000000000000000000000000000000000003
400000000000000000000000000000000000000000000000000000000003
400000000000000000000000000000000000000000000000000000000003
400000000000000000000000000000000000000000000000000000000003
400000000000000000000000000000000000000000000000000000000003
400000000000000000000000000000000000000000000000000000000003
400000000000000000000000000000000000000000000000005600000003
400000000UUUUUUUU0000000000000000000000000560000003400000003
400000000DEEEEEEF0000000DEEEEEEEF000000000340000003400000003
400000000000000000000000000000000000000000340000003400000003
4000000000000000000000000UUUUUUU000000000034UUUUUU34000000W3
A111111111111111111111111111111111111111119A1111119A11111119
