58 18 0 102 204
B22222222222222222222222222222222222222222222222222222222C
4000000000000000000000000000000000000000000000000000000003
4000000000000000000000000000000000000000000000000000000003
4000000000000000000000000000000000000000000000000000000003
4000000000000000000000000000000000000000000000000000000003
4000000000000000000000000000000000000000000000000000000003
4000000000000000000000000000000000000000000000000000000003
4000000000000000000000000000000000000000000000000000000003
4000000000000000000000000000000000000000000000000000000003
4000000000000000000000000000000000000000000000000000000003
4000000000000000000000000000000000000000000000000000000003
40000000000000000000000000000000000000000000000000000000W3
400000000000000DF00000000DF000000000DEEF00000000000000DEF3
400000000000000SS00000000SS000000000SSSS000000000000000003
40000000DF000000000000000000000000000000000000000000000003
40000000SS000000000000000000000000000000000000000000000003
4000000000000000000000000000000000000000000000000000000003
A111111111116UUUUUUUUUUUUUUUUUUUUUUUUUUUUUUUUUUU5111111119